VISUALIZE COVID-19
…
#world total death cases by date
d_cases <- coronavirus %>%
  filter(type == 'death') %>%
  group_by(country) %>%
summarise(death = sum(cases))

# Countries with highest number of death cases
d_cases[order(-d_cases$death),]

## # A tibble: 193 x 2
##    country         death
##    <chr>           <dbl>
##  1 US             593288
##  2 Brazil         456674
##  3 India          318895
##  4 Mexico         222661
##  5 United Kingdom 128020
##  6 Italy          125793
##  7 Russia         117990
##  8 France         109327
##  9 Germany         88192
## 10 Colombia        86693
## # ... with 183 more rows

#world total recovered cases by date
r_cases <- coronavirus %>%
  filter(type == 'recovered') %>%
  group_by(country) %>%
summarise(recovered = sum(cases))

Join 3 into 1 single frame

type_country = cfm_cases %>%
  full_join(r_cases,by="country") %>%
  full_join(d_cases,by="country")
type_country

## # A tibble: 193 x 4
##    country             confirmed recovered death
##    <chr>                   <dbl>     <dbl> <dbl>
##  1 Afghanistan             68366     56962  2869
##  2 Albania                132264    129042  2447
##  3 Algeria                127926     89040  3448
##  4 Andorra                 13682     13405   127
##  5 Angola                  33607     27529   745
##  6 Antigua and Barbuda      1258      1200    42
##  7 Argentina             3663215   3219474 76135
##  8 Armenia                222409    212265  4416
##  9 Australia               30074     23571   910
## 10 Austria                643168    626259 10573
## # ... with 183 more rows

rrate_country <- type_country %>%
  mutate(r_rate = round((recovered/confirmed),4))
  
rrate_country

## # A tibble: 193 x 5
##    country             confirmed recovered death r_rate
##    <chr>                   <dbl>     <dbl> <dbl>  <dbl>
##  1 Afghanistan             68366     56962  2869  0.833
##  2 Albania                132264    129042  2447  0.976
##  3 Algeria                127926     89040  3448  0.696
##  4 Andorra                 13682     13405   127  0.980
##  5 Angola                  33607     27529   745  0.819
##  6 Antigua and Barbuda      1258      1200    42  0.954
##  7 Argentina             3663215   3219474 76135  0.879
##  8 Armenia                222409    212265  4416  0.954
##  9 Australia               30074     23571   910  0.784
## 10 Austria                643168    626259 10573  0.974
## # ... with 183 more rows

Countries with highest recoverd rate:

rrate_country[order(-rrate_country$r_rate),]

## # A tibble: 193 x 5
##    country          confirmed recovered death r_rate
##    <chr>                <dbl>     <dbl> <dbl>  <dbl>
##  1 Holy See                27        27     0  1    
##  2 Marshall Islands         4         4     0  1    
##  3 Micronesia               1         1     0  1    
##  4 Samoa                    3         3     0  1    
##  5 Solomon Islands         20        20     0  1    
##  6 Grenada                161       160     1  0.994
##  7 Tajikistan           13308     13218    90  0.993
##  8 Israel              839420    832490  6406  0.992
##  9 Singapore            61940     61372    32  0.991
## 10 Iceland               6555      6476    29  0.988
## # ... with 183 more rows
…
## `summarise()` has grouped output by 'date'. You can override using the `.groups` argument.

vietnam_corona <- vietnam_corona %>%
     group_by(type) %>%
     mutate(cum_cases = cumsum(tt_case))

vn_cases <- vietnam_corona %>%
  group_by(date) %>% 
  filter(type == 'confirmed')
vn_cases

## # A tibble: 492 x 4
## # Groups:   date [492]
##    date       type      tt_case cum_cases
##    <date>     <chr>       <dbl>     <dbl>
##  1 2020-01-22 confirmed       0         0
##  2 2020-01-23 confirmed       2         2
##  3 2020-01-24 confirmed       0         2
##  4 2020-01-25 confirmed       0         2
##  5 2020-01-26 confirmed       0         2
##  6 2020-01-27 confirmed       0         2
##  7 2020-01-28 confirmed       0         2
##  8 2020-01-29 confirmed       0         2
##  9 2020-01-30 confirmed       0         2
## 10 2020-01-31 confirmed       0         2
## # ... with 482 more rows
…
